"","X","layer1","layer2","layer3","momentum","lr","batch","ID","Rsq","RMSE","Rsq_Te","RMSE_te","n_epoch","MSE_Cal","MSE_Val"
"1",1,5,0,0,0,0.005,50,1,0.68,2.13,0.65,7.24,800,0.300498299469869,0.389930031262338
"2",2,10,0,0,0,0.005,50,2,0.72,2,0.66,7.18,800,0.251466577734066,0.392585563007742
"3",3,15,0,0,0,0.005,50,3,0.7,2.06,0.64,7.33,727,0.274431790657686,0.397844473365694
"4",4,20,0,0,0,0.005,50,4,0.74,1.91,0.66,7.21,800,0.225012588041223,0.384754387661815
"5",5,5,3,0,0,0.005,50,5,0.65,2.23,0.65,7.31,800,0.325877664139612,0.448549835477024
"6",6,10,3,0,0,0.005,50,6,0.72,1.99,0.66,7.13,800,0.245351668368491,0.411880380939692
"7",7,15,3,0,0,0.005,50,7,0.7,2.06,0.67,7.01,800,0.27153948517684,0.405353093985468
"8",8,20,3,0,0,0.005,50,8,0.76,1.85,0.66,7.16,800,0.2141516998982,0.346587907057256
"9",9,5,8,0,0,0.005,50,9,0.68,2.16,0.67,7.09,800,0.309052089741198,0.398267445154488
"10",10,10,8,0,0,0.005,50,10,0.73,1.98,0.67,7.02,800,0.248087686083237,0.385106566827744
"11",11,15,8,0,0,0.005,50,11,0.71,2.05,0.67,7.07,800,0.271080939911638,0.386215722188354
"12",12,20,8,0,0,0.005,50,12,0.73,1.96,0.69,6.86,800,0.234038432676436,0.387679088395089
"13",13,5,10,0,0,0.005,50,13,0.71,2.04,0.67,7.03,800,0.279858369844074,0.350578057114035
"14",14,10,10,0,0,0.005,50,14,0.73,1.97,0.68,6.98,800,0.243259062198521,0.386664057150483
"15",15,15,10,0,0,0.005,50,15,0.71,2.03,0.68,6.98,800,0.262786130643302,0.398037022911012
"16",16,20,10,0,0,0.005,50,16,0.73,1.97,0.71,6.61,800,0.244116273608727,0.383896964136511
"17",17,5,0,3,0,0.005,50,17,0.68,2.13,0.68,6.89,800,0.306738153625113,0.363303726539016
"18",18,10,0,3,0,0.005,50,18,0.71,2.05,0.67,7.08,800,0.270216265715186,0.385098360013217
"19",19,15,0,3,0,0.005,50,19,0.72,2.02,0.66,7.2,800,0.264202669706304,0.372799392789602
"20",20,20,0,3,0,0.005,50,20,0.74,1.93,0.69,6.84,800,0.229658149597042,0.391622624360025
"21",21,5,3,3,0,0.005,50,21,0.65,2.24,0.65,7.23,800,0.337303176172189,0.407317197881639
"22",22,10,3,3,0,0.005,50,22,0.72,2,0.68,6.98,800,0.250209488563922,0.394380799029022
"23",23,15,3,3,0,0.005,50,23,0.7,2.08,0.66,7.16,800,0.278884463111404,0.39972378872335
"24",24,20,3,3,0,0.005,50,24,0.71,2.05,0.68,6.91,800,0.268270141664621,0.402765318751335
"25",25,5,8,3,0,0.005,50,25,0.67,2.17,0.64,7.39,800,0.311050033489988,0.413875835482031
"26",26,10,8,3,0,0.005,50,26,0.73,1.96,0.68,6.98,800,0.23942601656251,0.395867927931249
"27",27,15,8,3,0,0.005,50,27,0.74,1.94,0.7,6.78,800,0.244352577506516,0.342537071090192
"28",28,20,8,3,0,0.005,50,28,0.74,1.92,0.69,6.87,800,0.237661018045787,0.346760062966496
"29",29,5,10,3,0,0.005,50,29,0.68,2.14,0.67,7.08,800,0.302785945200043,0.388000084552914
"30",30,10,10,3,0,0.005,50,30,0.71,2.02,0.66,7.18,800,0.257831929130487,0.404777126386762
"31",31,15,10,3,0,0.005,50,31,0.71,2.05,0.66,7.19,800,0.26894050055915,0.391723051201552
"32",32,20,10,3,0,0.005,50,32,0.72,2.02,0.69,6.79,800,0.255887807255717,0.392763149924576
"33",33,5,0,6,0,0.005,50,33,0.69,2.1,0.67,7.07,800,0.294371602807366,0.372078689280897
"34",34,10,0,6,0,0.005,50,34,0.74,1.93,0.67,7.1,800,0.232651556854427,0.375275165308267
"35",35,15,0,6,0,0.005,50,35,0.73,1.96,0.7,6.68,800,0.244280916387062,0.365432006306946
"36",36,20,0,6,0,0.005,50,36,0.72,2,0.69,6.8,800,0.252326872681115,0.39650662522763
"37",37,5,3,6,0,0.005,50,37,0.65,2.23,0.65,7.29,800,0.328180910650416,0.429319989401847
"38",38,10,3,6,0,0.005,50,38,0.73,1.97,0.68,6.92,800,0.244724600083583,0.37752295518294
"39",39,15,3,6,0,0.005,50,39,0.69,2.12,0.66,7.21,800,0.288531511111846,0.421787545084953
"40",40,20,3,6,0,0.005,50,40,0.74,1.92,0.68,6.97,800,0.226668132336325,0.386632550042123
"41",41,5,8,6,0,0.005,50,41,0.67,2.16,0.66,7.14,800,0.308218948210509,0.405023516621441
"42",42,10,8,6,0,0.005,50,42,0.74,1.92,0.69,6.78,800,0.227527297350608,0.378018895629793
"43",43,15,8,6,0,0.005,50,43,0.72,2,0.68,6.91,800,0.256562846415941,0.360803203657269
"44",44,20,8,6,0,0.005,50,44,0.72,2,0.69,6.88,800,0.250756013587106,0.399509456939995
"45",45,5,10,6,0,0.005,50,45,0.69,2.1,0.67,7.04,800,0.297762552298133,0.349734678864479
"46",46,10,10,6,0,0.005,50,46,0.73,1.98,0.68,6.96,800,0.248235453173997,0.389195075724274
"47",47,15,10,6,0,0.005,50,47,0.72,1.99,0.68,6.93,800,0.256153468378092,0.368572884704918
"48",48,20,10,6,0,0.005,50,48,0.73,1.98,0.69,6.83,800,0.245945040495394,0.393467280548066
"49",49,5,0,0,0.1,0.005,50,49,0.72,2.01,0.65,7.26,800,0.270084773574663,0.329732945654541
"50",50,10,0,0,0.1,0.005,50,50,0.73,1.98,0.63,7.42,800,0.248339662175208,0.388423983007669
"51",51,15,0,0,0.1,0.005,50,51,0.73,1.97,0.67,7.05,800,0.247988048902973,0.365612676367164
"52",52,20,0,0,0.1,0.005,50,52,0.75,1.89,0.67,7.06,800,0.220291743922859,0.36676456220448
"53",53,5,3,0,0.1,0.005,50,53,0.69,2.12,0.68,6.94,800,0.301055509944212,0.372771865222603
"54",54,10,3,0,0.1,0.005,50,54,0.73,1.98,0.68,6.92,800,0.248898922790282,0.381161856465042
"55",55,15,3,0,0.1,0.005,50,55,0.71,2.04,0.68,6.93,800,0.264791720508129,0.391772380098701
"56",56,20,3,0,0.1,0.005,50,56,0.74,1.92,0.68,6.95,800,0.227446041120247,0.381388833746314
"57",57,5,8,0,0.1,0.005,50,57,0.7,2.09,0.64,7.36,800,0.293754677569017,0.354115724563599
"58",58,10,8,0,0.1,0.005,50,58,0.73,1.96,0.66,7.12,800,0.238378363854734,0.395768731366843
"59",59,15,8,0,0.1,0.005,50,59,0.74,1.94,0.67,7.06,800,0.234456662050709,0.384005088824779
"60",60,20,8,0,0.1,0.005,50,60,0.73,1.96,0.66,7.13,800,0.243432705686628,0.372693730518222
"61",61,5,10,0,0.1,0.005,50,61,0.69,2.11,0.67,7.01,800,0.301349904636153,0.35959807317704
"62",62,10,10,0,0.1,0.005,50,62,0.7,2.06,0.68,6.94,800,0.266329376454361,0.427282446995378
"63",63,15,10,0,0.1,0.005,50,63,0.73,1.97,0.67,7.1,800,0.253638668605706,0.348335734102875
"64",64,20,10,0,0.1,0.005,50,64,0.74,1.94,0.68,6.97,800,0.240009424316762,0.367727054283023
"65",65,5,0,3,0.1,0.005,50,65,0.66,2.21,0.63,7.48,800,0.323940200014981,0.407300682738423
"66",66,10,0,3,0.1,0.005,50,66,0.71,2.03,0.67,7.1,716,0.261393225767133,0.400238703470677
"67",67,15,0,3,0.1,0.005,50,67,0.74,1.93,0.69,6.88,800,0.231495904672771,0.378698295447975
"68",68,20,0,3,0.1,0.005,50,68,0.75,1.88,0.67,7.05,800,0.221737143763734,0.346181848552078
"69",69,5,3,3,0.1,0.005,50,69,0.68,2.15,0.68,6.98,800,0.310995219364331,0.378929682075977
"70",70,10,3,3,0.1,0.005,50,70,0.72,2.01,0.68,6.96,800,0.253210804522178,0.393496601376683
"71",71,15,3,3,0.1,0.005,50,71,0.69,2.09,0.66,7.16,800,0.282313543261731,0.406724754720926
"72",72,20,3,3,0.1,0.005,50,72,0.72,2.01,0.69,6.82,800,0.256030411473362,0.388255608268082
"73",73,5,8,3,0.1,0.005,50,73,0.67,2.16,0.64,7.35,800,0.307621844013688,0.408773938659579
"74",74,10,8,3,0.1,0.005,50,74,0.71,2.05,0.68,7,800,0.264158688188066,0.415542325470597
"75",75,15,8,3,0.1,0.005,50,75,0.74,1.95,0.7,6.76,800,0.247359608871076,0.339682995807379
"76",76,20,8,3,0.1,0.005,50,76,0.74,1.94,0.68,6.9,800,0.240675256858137,0.358899203594774
"77",77,5,10,3,0.1,0.005,50,77,0.7,2.06,0.65,7.28,800,0.283726646270991,0.358023167587817
"78",78,10,10,3,0.1,0.005,50,78,0.7,2.09,0.66,7.13,800,0.279659010569099,0.411874114535749
"79",79,15,10,3,0.1,0.005,50,79,0.73,1.97,0.69,6.84,800,0.249834932486061,0.355981882661581
"80",80,20,10,3,0.1,0.005,50,80,0.75,1.91,0.7,6.75,800,0.230269272297551,0.346584288403392
"81",81,5,0,6,0.1,0.005,50,81,0.67,2.18,0.66,7.21,800,0.320918632176768,0.392059107776731
"82",82,10,0,6,0.1,0.005,50,82,0.73,1.97,0.66,7.14,800,0.241880525274023,0.391494581010193
"83",83,15,0,6,0.1,0.005,50,83,0.74,1.94,0.7,6.78,800,0.233792884422637,0.381811963859946
"84",84,20,0,6,0.1,0.005,50,84,0.74,1.93,0.69,6.89,800,0.234660435325015,0.360281992238015
"85",85,5,3,6,0.1,0.005,50,85,0.68,2.13,0.68,6.94,800,0.297780164793869,0.394512690138072
"86",86,10,3,6,0.1,0.005,50,86,0.72,2,0.68,6.92,800,0.251760625381813,0.386458359193057
"87",87,15,3,6,0.1,0.005,50,87,0.72,2.01,0.68,6.97,800,0.255574376569563,0.38857272034511
"88",88,20,3,6,0.1,0.005,50,88,0.75,1.89,0.67,7.02,800,0.222668995306234,0.355233097914606
"89",89,5,8,6,0.1,0.005,50,89,0.67,2.18,0.65,7.25,800,0.31031917971424,0.417472908273339
"90",90,10,8,6,0.1,0.005,50,90,0.71,2.04,0.69,6.83,800,0.261133070536302,0.409510403871536
"91",91,15,8,6,0.1,0.005,50,91,0.73,1.98,0.66,7.15,800,0.246412902895417,0.387078799773008
"92",92,20,8,6,0.1,0.005,50,92,0.73,1.98,0.69,6.81,800,0.251776725310503,0.374207569751889
"93",93,5,10,6,0.1,0.005,50,93,0.71,2.05,0.66,7.16,800,0.272472330767985,0.382072762586176
"94",94,10,10,6,0.1,0.005,50,94,0.73,1.96,0.66,7.13,800,0.243787297977539,0.375077102333307
"95",95,15,10,6,0.1,0.005,50,95,0.69,2.11,0.67,7.02,800,0.287022130253171,0.412224947940558
"96",96,20,10,6,0.1,0.005,50,96,0.75,1.89,0.68,6.92,800,0.226041627985104,0.351710244547576
"97",97,5,0,0,0,0.01,50,97,0.69,2.09,0.63,7.44,800,0.289045434693106,0.383965846151114
"98",98,10,0,0,0,0.01,50,98,0.69,2.09,0.63,7.48,720,0.279108395533069,0.418924788944423
"99",99,15,0,0,0,0.01,50,99,0.71,2.02,0.66,7.17,800,0.26047726345417,0.393877578433603
"100",100,20,0,0,0,0.01,50,100,0.75,1.9,0.67,7.1,743,0.224440521575925,0.374652578495443
"101",101,5,3,0,0,0.01,50,101,0.69,2.11,0.66,7.16,800,0.298882910490223,0.359733566641808
"102",102,10,3,0,0,0.01,50,102,0.71,2.05,0.66,7.13,789,0.264992843032723,0.413540127687156
"103",103,15,3,0,0,0.01,50,103,0.73,1.98,0.69,6.86,800,0.250274797704599,0.366632897406816
"104",104,20,3,0,0,0.01,50,104,0.74,1.92,0.71,6.61,800,0.23398881066611,0.358965394087136
"105",105,5,8,0,0,0.01,50,105,0.7,2.09,0.67,7.05,800,0.286637149476968,0.382601679768413
"106",106,10,8,0,0,0.01,50,106,0.74,1.93,0.68,6.93,800,0.232413243621984,0.378117161802948
"107",107,15,8,0,0,0.01,50,107,0.71,2.04,0.69,6.87,800,0.267210412650904,0.385820442344993
"108",108,20,8,0,0,0.01,50,108,0.73,1.98,0.68,6.96,800,0.242494039196658,0.398758660536259
"109",109,5,10,0,0,0.01,50,109,0.69,2.1,0.66,7.15,800,0.301534561132582,0.343301191926003
"110",110,10,10,0,0,0.01,50,110,0.72,2.02,0.66,7.17,800,0.256525638928242,0.399467987474054
"111",111,15,10,0,0,0.01,50,111,0.7,2.08,0.64,7.4,701,0.278420853563464,0.408211200963706
"112",112,20,10,0,0,0.01,50,112,0.75,1.91,0.69,6.86,800,0.224714516053091,0.363889114931226
"113",113,5,0,3,0,0.01,50,113,0.69,2.12,0.67,7.05,800,0.28939058402365,0.420977968722582
"114",114,10,0,3,0,0.01,50,114,0.73,1.96,0.69,6.88,800,0.23992215717735,0.388616375625134
"115",115,15,0,3,0,0.01,50,115,0.73,1.95,0.7,6.68,800,0.244841273888631,0.35500258859247
"116",116,20,0,3,0,0.01,50,116,0.74,1.92,0.68,6.9,800,0.227180236890714,0.383750133682042
"117",117,5,3,3,0,0.01,50,117,0.65,2.24,0.66,7.2,800,0.328892536887267,0.443668930791318
"118",118,10,3,3,0,0.01,50,118,0.74,1.95,0.66,7.15,800,0.24047964050514,0.363239619880915
"119",119,15,3,3,0,0.01,50,119,0.71,2.03,0.67,7.09,800,0.266206254098877,0.384525589644909
"120",120,20,3,3,0,0.01,50,120,0.73,1.97,0.7,6.77,800,0.246012264394443,0.380763744935393
"121",121,5,8,3,0,0.01,50,121,0.66,2.2,0.66,7.2,800,0.321355275325506,0.424812943674624
"122",122,10,8,3,0,0.01,50,122,0.73,1.95,0.66,7.19,800,0.241637268531761,0.371513142250478
"123",123,15,8,3,0,0.01,50,123,0.71,2.02,0.68,6.93,800,0.267392406915442,0.366426242049783
"124",124,20,8,3,0,0.01,50,124,0.73,1.97,0.7,6.7,800,0.246905607829919,0.365309262648225
"125",125,5,10,3,0,0.01,50,125,0.71,2.04,0.66,7.17,800,0.278944772766639,0.340175731107593
"126",126,10,10,3,0,0.01,50,126,0.72,1.99,0.67,7.11,761,0.245909718512182,0.412093988619745
"127",127,15,10,3,0,0.01,50,127,0.71,2.04,0.67,7.08,800,0.268730991994765,0.378674414008856
"128",128,20,10,3,0,0.01,50,128,0.74,1.91,0.69,6.79,800,0.235880014841782,0.343845952302217
"129",129,5,0,6,0,0.01,50,129,0.7,2.06,0.68,6.96,800,0.282282272585687,0.35677446750924
"130",130,10,0,6,0,0.01,50,130,0.74,1.92,0.67,7.08,800,0.23046385791494,0.366686772555113
"131",131,15,0,6,0,0.01,50,131,0.74,1.92,0.69,6.83,800,0.229730807764043,0.37487813597545
"132",132,20,0,6,0,0.01,50,132,0.74,1.94,0.68,6.91,800,0.232146866520401,0.38258311804384
"133",133,5,3,6,0,0.01,50,133,0.65,2.23,0.66,7.16,800,0.324932681622688,0.439355872571468
"134",134,10,3,6,0,0.01,50,134,0.72,2,0.64,7.38,800,0.25178510866645,0.398000541143119
"135",135,15,3,6,0,0.01,50,135,0.71,2.02,0.69,6.84,800,0.259967437587218,0.393698890227824
"136",136,20,3,6,0,0.01,50,136,0.73,1.96,0.69,6.79,800,0.242492966266377,0.37338232435286
"137",137,5,8,6,0,0.01,50,137,0.66,2.22,0.66,7.18,800,0.326465000257701,0.417437920346856
"138",138,10,8,6,0,0.01,50,138,0.73,1.97,0.68,6.98,800,0.239409878663281,0.397902464494109
"139",139,15,8,6,0,0.01,50,139,0.73,1.95,0.66,7.18,800,0.238253856764796,0.386530126910657
"140",140,20,8,6,0,0.01,50,140,0.73,1.97,0.68,6.9,800,0.246754723829316,0.37140788231045
"141",141,5,10,6,0,0.01,50,141,0.7,2.08,0.65,7.29,800,0.286807480484784,0.360115380957723
"142",142,10,10,6,0,0.01,50,142,0.72,2.01,0.67,7.11,800,0.253376457522227,0.401340367738158
"143",143,15,10,6,0,0.01,50,143,0.69,2.09,0.68,6.92,800,0.283096915800868,0.394867531955242
"144",144,20,10,6,0,0.01,50,144,0.74,1.93,0.68,6.93,800,0.234916990647674,0.376167328562587
"145",145,5,0,0,0.1,0.01,50,145,0.64,2.27,0.63,7.44,724,0.346793127297982,0.418955072760582
"146",146,10,0,0,0.1,0.01,50,146,0.73,1.96,0.64,7.34,800,0.240828864439773,0.387612204067409
"147",147,15,0,0,0.1,0.01,50,147,0.73,1.98,0.67,7.08,800,0.248345093140867,0.384016206953675
"148",148,20,0,0,0.1,0.01,50,148,0.74,1.94,0.65,7.22,762,0.231551007241501,0.4004509691149
"149",149,5,3,0,0.1,0.01,50,149,0.68,2.14,0.67,7.09,800,0.304898454000358,0.374216471333057
"150",150,10,3,0,0.1,0.01,50,150,0.74,1.94,0.64,7.35,800,0.233725338287436,0.385797045659274
"151",151,15,3,0,0.1,0.01,50,151,0.7,2.06,0.67,7.07,800,0.276293566860346,0.379501977004111
"152",152,20,3,0,0.1,0.01,50,152,0.73,1.96,0.68,6.94,800,0.235226283338542,0.406803934369236
"153",153,5,8,0,0.1,0.01,50,153,0.7,2.08,0.68,6.97,800,0.297318549539395,0.326178486924618
"154",154,10,8,0,0.1,0.01,50,154,0.74,1.92,0.66,7.18,800,0.227963671204907,0.380810298025608
"155",155,15,8,0,0.1,0.01,50,155,0.74,1.92,0.68,6.98,800,0.234855743036106,0.359222516417503
"156",156,20,8,0,0.1,0.01,50,156,0.74,1.94,0.69,6.79,800,0.233470325089098,0.393136743456125
"157",157,5,10,0,0.1,0.01,50,157,0.7,2.08,0.67,7.04,800,0.28851154487443,0.358992780093104
"158",158,10,10,0,0.1,0.01,50,158,0.71,2.05,0.64,7.39,800,0.264181226153531,0.425947919487953
"159",159,15,10,0,0.1,0.01,50,159,0.73,1.95,0.67,7.01,800,0.240961583872372,0.370968438219279
"160",160,20,10,0,0.1,0.01,50,160,0.76,1.86,0.67,7.05,800,0.217654632473001,0.347941353451461
"161",161,5,0,3,0.1,0.01,50,161,0.67,2.16,0.62,7.54,800,0.311575178042369,0.384177108760923
"162",162,10,0,3,0.1,0.01,50,162,0.74,1.94,0.67,7.09,800,0.233012787711835,0.385429113637656
"163",163,15,0,3,0.1,0.01,50,163,0.72,1.99,0.69,6.88,800,0.252902257344456,0.369887149892747
"164",164,20,0,3,0.1,0.01,50,164,0.75,1.89,0.69,6.84,800,0.2189754451054,0.383346489164978
"165",165,5,3,3,0.1,0.01,50,165,0.66,2.21,0.67,7.1,800,0.32010634653066,0.435813639312983
"166",166,10,3,3,0.1,0.01,50,166,0.74,1.94,0.67,7.01,800,0.237158713332824,0.370524416211993
"167",167,15,3,3,0.1,0.01,50,167,0.7,2.06,0.66,7.17,800,0.277953740970736,0.37456225650385
"168",168,20,3,3,0.1,0.01,50,168,0.7,2.09,0.68,6.89,800,0.276220623202499,0.421318701468408
"169",169,5,8,3,0.1,0.01,50,169,0.67,2.17,0.66,7.15,800,0.310984915088842,0.412788880988955
"170",170,10,8,3,0.1,0.01,50,170,0.7,2.07,0.67,7,800,0.277880389847229,0.395150656346232
"171",171,15,8,3,0.1,0.01,50,171,0.72,1.99,0.69,6.86,800,0.248163524697139,0.395570186898112
"172",172,20,8,3,0.1,0.01,50,172,0.73,1.97,0.7,6.75,800,0.249119600562631,0.365417613182217
"173",173,5,10,3,0.1,0.01,50,173,0.68,2.15,0.66,7.17,800,0.3065850940083,0.397878339514136
"174",174,10,10,3,0.1,0.01,50,174,0.72,2.01,0.68,6.91,800,0.262998064222892,0.3634376344271
"175",175,15,10,3,0.1,0.01,50,175,0.72,2,0.68,6.97,800,0.256371395655134,0.375539749860764
"176",176,20,10,3,0.1,0.01,50,176,0.74,1.93,0.7,6.75,800,0.234841286354263,0.365219016093761
"177",177,5,0,6,0.1,0.01,50,177,0.66,2.21,0.65,7.29,800,0.320220061212475,0.429318207781762
"178",178,10,0,6,0.1,0.01,50,178,0.73,1.97,0.68,6.92,800,0.247465521202203,0.376776797231287
"179",179,15,0,6,0.1,0.01,50,179,0.72,2.01,0.66,7.19,800,0.252923898871466,0.410680707544088
"180",180,20,0,6,0.1,0.01,50,180,0.75,1.9,0.69,6.82,800,0.224733181933733,0.354014093521982
"181",181,5,3,6,0.1,0.01,50,181,0.67,2.17,0.63,7.51,800,0.316372573772444,0.386062104720622
"182",182,10,3,6,0.1,0.01,50,182,0.74,1.95,0.68,6.95,800,0.236914097410959,0.380859025754035
"183",183,15,3,6,0.1,0.01,50,183,0.69,2.11,0.67,7.1,800,0.287616115626452,0.417342568747699
"184",184,20,3,6,0.1,0.01,50,184,0.74,1.95,0.68,6.93,800,0.23180852287807,0.380473193246871
"185",185,5,8,6,0.1,0.01,50,185,0.69,2.09,0.68,6.99,800,0.287880015949673,0.38396365987137
"186",186,10,8,6,0.1,0.01,50,186,0.7,2.06,0.67,7.04,800,0.26706725067241,0.421497165691108
"187",187,15,8,6,0.1,0.01,50,187,0.72,2,0.67,7.1,800,0.256081677033925,0.384825474116951
"188",188,20,8,6,0.1,0.01,50,188,0.72,2,0.7,6.72,800,0.254364588667661,0.39167119609192
"189",189,5,10,6,0.1,0.01,50,189,0.7,2.06,0.67,7.06,800,0.287327488862451,0.347072122152895
"190",190,10,10,6,0.1,0.01,50,190,0.72,2,0.66,7.19,800,0.259169655543524,0.362357168458402
"191",191,15,10,6,0.1,0.01,50,191,0.71,2.05,0.67,7.09,800,0.27169526421473,0.389965680893511
"192",192,20,10,6,0.1,0.01,50,192,0.73,1.96,0.67,7.11,800,0.238917148430644,0.398251530714333
"193",1,25,0,0,0,0.005,50,1,0.75,1.91,0.66,7.17,800,0.220948635143233,0.386160257272422
"194",2,30,0,0,0,0.005,50,2,0.75,1.88,0.67,7.03,800,0.212221995346137,0.395253770053387
"195",3,35,0,0,0,0.005,50,3,0.77,1.82,0.68,6.91,800,0.204019216594513,0.347639077343047
"196",4,25,3,0,0,0.005,50,4,0.75,1.89,0.71,6.64,800,0.225534417511153,0.35349087510258
"197",5,30,3,0,0,0.005,50,5,0.72,2.01,0.7,6.74,800,0.257290038496793,0.384677456691861
"198",6,35,3,0,0,0.005,50,6,0.74,1.93,0.7,6.78,800,0.238936939098075,0.356853726319969
"199",7,25,8,0,0,0.005,50,7,0.74,1.92,0.7,6.75,800,0.232203032894347,0.367139525711536
"200",8,30,8,0,0,0.005,50,8,0.72,2.01,0.71,6.61,800,0.256923088382349,0.383951612282544
"201",9,35,8,0,0,0.005,50,9,0.75,1.88,0.7,6.78,800,0.222615515476293,0.33145762514323
"202",10,25,10,0,0,0.005,50,10,0.75,1.9,0.71,6.65,800,0.225324586815636,0.361911217216402
"203",11,30,10,0,0,0.005,50,11,0.71,2.04,0.69,6.81,800,0.265553915089896,0.385126684326679
"204",12,35,10,0,0,0.005,50,12,0.75,1.9,0.68,6.92,800,0.225636733166389,0.357243585865945
"205",13,25,0,3,0,0.005,50,13,0.71,2.03,0.68,6.95,800,0.263325341973533,0.394080146681517
"206",14,30,0,3,0,0.005,50,14,0.74,1.93,0.72,6.53,800,0.232299188943981,0.370241537690163
"207",15,35,0,3,0,0.005,50,15,0.73,1.97,0.7,6.72,800,0.249603195975045,0.36168418219313
"208",16,25,3,3,0,0.005,50,16,0.76,1.85,0.7,6.67,800,0.215184086167962,0.342634381726384
"209",17,30,3,3,0,0.005,50,17,0.72,1.99,0.68,6.9,800,0.247098220834624,0.395367119926959
"210",18,35,3,3,0,0.005,50,18,0.75,1.88,0.72,6.48,800,0.218324892520438,0.349138049874455
"211",19,25,8,3,0,0.005,50,19,0.73,1.96,0.69,6.83,800,0.232125518617447,0.402824665885419
"212",20,30,8,3,0,0.005,50,20,0.72,2,0.69,6.83,800,0.259875985006849,0.36219010129571
"213",21,35,8,3,0,0.005,50,21,0.75,1.91,0.7,6.72,800,0.233337641614157,0.337302330881357
"214",22,25,10,3,0,0.005,50,22,0.72,2,0.69,6.83,800,0.254485131500284,0.384011068381369
"215",23,30,10,3,0,0.005,50,23,0.71,2.02,0.7,6.69,800,0.259710374668229,0.375893739983439
"216",24,35,10,3,0,0.005,50,24,0.72,2.02,0.69,6.85,800,0.262964521825734,0.371254547964782
"217",25,25,0,6,0,0.005,50,25,0.73,1.98,0.7,6.77,800,0.243956169943466,0.393485663458705
"218",26,30,0,6,0,0.005,50,26,0.72,2,0.7,6.7,800,0.260721335886229,0.36410647071898
"219",27,35,0,6,0,0.005,50,27,0.77,1.83,0.7,6.7,800,0.204515601695751,0.352629773784429
"220",28,25,3,6,0,0.005,50,28,0.73,1.96,0.71,6.64,800,0.245289429275431,0.366658621933311
"221",29,30,3,6,0,0.005,50,29,0.69,2.12,0.69,6.85,800,0.292292511395486,0.410838155541569
"222",30,35,3,6,0,0.005,50,30,0.72,1.99,0.7,6.71,800,0.258563847586618,0.358848363161087
"223",31,25,8,6,0,0.005,50,31,0.74,1.91,0.69,6.79,800,0.229707973747395,0.366032204590738
"224",32,30,8,6,0,0.005,50,32,0.72,2.01,0.7,6.78,800,0.254065083670915,0.394703345373273
"225",33,35,8,6,0,0.005,50,33,0.74,1.94,0.71,6.61,800,0.238565942624069,0.366454037372023
"226",34,25,10,6,0,0.005,50,34,0.73,1.96,0.71,6.62,800,0.243668637778858,0.370805846061558
"227",35,30,10,6,0,0.005,50,35,0.7,2.06,0.69,6.84,800,0.273493545204284,0.390372273046523
"228",36,35,10,6,0,0.005,50,36,0.75,1.91,0.71,6.61,800,0.235738440402896,0.334010556805879
"229",37,25,0,0,0.1,0.005,50,37,0.75,1.89,0.66,7.15,800,0.214192797242428,0.388414207845926
"230",38,30,0,0,0.1,0.005,50,38,0.74,1.95,0.67,7.03,800,0.237342190303743,0.388150708284229
"231",39,35,0,0,0.1,0.005,50,39,0.76,1.87,0.68,6.94,800,0.216430633910111,0.368591247592121
"232",40,25,3,0,0.1,0.005,50,40,0.76,1.86,0.71,6.58,800,0.216058867313289,0.351650178432465
"233",41,30,3,0,0.1,0.005,50,41,0.73,1.97,0.7,6.7,800,0.245865430277404,0.371189712081105
"234",42,35,3,0,0.1,0.005,50,42,0.74,1.95,0.7,6.78,800,0.239767785009781,0.361086294520646
"235",43,25,8,0,0.1,0.005,50,43,0.74,1.93,0.7,6.69,800,0.237502067942776,0.36077514057979
"236",44,30,8,0,0.1,0.005,50,44,0.75,1.91,0.68,6.91,800,0.232920925040309,0.344756248872727
"237",45,35,8,0,0.1,0.005,50,45,0.75,1.88,0.7,6.67,800,0.217590461217433,0.354075852315873
"238",46,25,10,0,0.1,0.005,50,46,0.74,1.92,0.69,6.87,800,0.230399817543377,0.370708792004734
"239",47,30,10,0,0.1,0.005,50,47,0.73,1.98,0.69,6.8,800,0.245473403836613,0.386096756905317
"240",48,35,10,0,0.1,0.005,50,48,0.75,1.89,0.7,6.74,800,0.223267625775203,0.350634369533509
"241",49,25,0,3,0.1,0.005,50,49,0.76,1.87,0.7,6.69,800,0.220529537825913,0.345699867233634
"242",50,30,0,3,0.1,0.005,50,50,0.72,2.01,0.69,6.82,800,0.259387967146834,0.371203432790935
"243",51,35,0,3,0.1,0.005,50,51,0.73,1.96,0.68,6.96,800,0.24781997794739,0.351297039072961
"244",52,25,3,3,0.1,0.005,50,52,0.74,1.94,0.7,6.76,800,0.237155227966391,0.36818522401154
"245",53,30,3,3,0.1,0.005,50,53,0.71,2.02,0.69,6.8,800,0.262764959652254,0.383770610205829
"246",54,35,3,3,0.1,0.005,50,54,0.71,2.03,0.69,6.83,800,0.270086231659704,0.362864019349217
"247",55,25,8,3,0.1,0.005,50,55,0.74,1.94,0.7,6.69,800,0.23567668936079,0.369185543619096
"248",56,30,8,3,0.1,0.005,50,56,0.72,2,0.7,6.76,800,0.252930494519818,0.384439206216484
"249",57,35,8,3,0.1,0.005,50,57,0.75,1.9,0.7,6.74,800,0.230748610668754,0.339690058026463
"250",58,25,10,3,0.1,0.005,50,58,0.74,1.95,0.69,6.81,800,0.235742211995315,0.389683172572404
"251",59,30,10,3,0.1,0.005,50,59,0.72,2.01,0.69,6.87,800,0.26093515941615,0.374288119841367
"252",60,35,10,3,0.1,0.005,50,60,0.73,1.96,0.71,6.65,800,0.249072063851375,0.352663609199226
"253",61,25,0,6,0.1,0.005,50,61,0.74,1.93,0.7,6.77,800,0.23126208323609,0.372965020593256
"254",62,30,0,6,0.1,0.005,50,62,0.72,2,0.69,6.85,800,0.252432871046903,0.385920265689492
"255",63,35,0,6,0.1,0.005,50,63,0.76,1.87,0.71,6.62,800,0.217339544718211,0.360766767524183
"256",64,25,3,6,0.1,0.005,50,64,0.72,2.01,0.68,6.95,800,0.253617219702751,0.394625786226243
"257",65,30,3,6,0.1,0.005,50,65,0.71,2.03,0.7,6.7,800,0.2583439607427,0.40223490819335
"258",66,35,3,6,0.1,0.005,50,66,0.75,1.89,0.7,6.72,800,0.222666190136384,0.338531356304884
"259",67,25,8,6,0.1,0.005,50,67,0.75,1.91,0.71,6.63,800,0.227181508367007,0.369511604309082
"260",68,30,8,6,0.1,0.005,50,68,0.73,1.97,0.7,6.76,800,0.251801038077779,0.345962876919657
"261",69,35,8,6,0.1,0.005,50,69,0.74,1.93,0.7,6.68,800,0.234238643394659,0.356529142707586
"262",70,25,10,6,0.1,0.005,50,70,0.74,1.95,0.7,6.68,800,0.241546588711376,0.361853702459484
"263",71,30,10,6,0.1,0.005,50,71,0.72,2.02,0.71,6.64,800,0.263092840228962,0.37716893479228
"264",72,35,10,6,0.1,0.005,50,72,0.74,1.93,0.69,6.8,800,0.239990463750196,0.341397961601615
"265",73,25,0,0,0,0.01,50,73,0.75,1.89,0.68,6.92,800,0.215874068421503,0.376370558980852
"266",74,30,0,0,0,0.01,50,74,0.73,1.96,0.67,7.03,760,0.237837623177605,0.400657762773335
"267",75,35,0,0,0,0.01,50,75,0.76,1.87,0.67,7,720,0.21386981417681,0.370697814505547
"268",76,25,3,0,0,0.01,50,76,0.75,1.91,0.71,6.66,800,0.223483010601419,0.372587592341006
"269",77,30,3,0,0,0.01,50,77,0.74,1.93,0.72,6.5,800,0.233528443071743,0.371496291365474
"270",78,35,3,0,0,0.01,50,78,0.73,1.96,0.71,6.65,800,0.247732143595336,0.356569975614548
"271",79,25,8,0,0,0.01,50,79,0.74,1.93,0.7,6.71,800,0.233075944900793,0.374615062959492
"272",80,30,8,0,0,0.01,50,80,0.72,2,0.69,6.85,800,0.252978962372781,0.384740264620632
"273",81,35,8,0,0,0.01,50,81,0.75,1.89,0.7,6.76,800,0.231397709287791,0.331883949227631
"274",82,25,10,0,0,0.01,50,82,0.72,2,0.69,6.83,800,0.252219317908294,0.389530494343489
"275",83,30,10,0,0,0.01,50,83,0.73,1.95,0.7,6.75,800,0.238016948442302,0.370999842882156
"276",84,35,10,0,0,0.01,50,84,0.75,1.91,0.68,6.91,800,0.227048499797038,0.357900133822113
"277",85,25,0,3,0,0.01,50,85,0.75,1.88,0.7,6.75,800,0.219491366737507,0.365264399442822
"278",86,30,0,3,0,0.01,50,86,0.73,1.97,0.7,6.78,800,0.245303340215373,0.375966836698353
"279",87,35,0,3,0,0.01,50,87,0.74,1.93,0.7,6.77,800,0.234641031189271,0.360901977401227
"280",88,25,3,3,0,0.01,50,88,0.74,1.93,0.71,6.63,800,0.233902350768225,0.363942184485495
"281",89,30,3,3,0,0.01,50,89,0.72,2.01,0.7,6.76,800,0.258539706188529,0.381488909013569
"282",90,35,3,3,0,0.01,50,90,0.74,1.92,0.71,6.64,800,0.235352451178649,0.357413455378264
"283",91,25,8,3,0,0.01,50,91,0.73,1.97,0.69,6.81,800,0.247759049573072,0.350407766643912
"284",92,30,8,3,0,0.01,50,92,0.73,1.96,0.7,6.76,800,0.247916254384871,0.353744032327086
"285",93,35,8,3,0,0.01,50,93,0.75,1.89,0.7,6.69,800,0.230580324760712,0.333935419563204
"286",94,25,10,3,0,0.01,50,94,0.72,2,0.69,6.82,800,0.256158755816513,0.384224036242813
"287",95,30,10,3,0,0.01,50,95,0.71,2.04,0.7,6.74,800,0.263999726031101,0.383376055862755
"288",96,35,10,3,0,0.01,50,96,0.72,2.01,0.7,6.78,800,0.261491016521992,0.365911187138408
"289",97,25,0,6,0,0.01,50,97,0.74,1.94,0.7,6.74,800,0.234562413479634,0.384035987313837
"290",98,30,0,6,0,0.01,50,98,0.72,2.02,0.69,6.83,800,0.252907387918108,0.41460227034986
"291",99,35,0,6,0,0.01,50,99,0.76,1.86,0.71,6.66,800,0.216059131123353,0.349390689749271
"292",100,25,3,6,0,0.01,50,100,0.71,2.02,0.69,6.82,800,0.254491127438161,0.399857790675014
"293",101,30,3,6,0,0.01,50,101,0.73,1.98,0.71,6.64,800,0.254938874915884,0.362320870626718
"294",102,35,3,6,0,0.01,50,102,0.77,1.82,0.7,6.68,800,0.20743512219298,0.329181644599885
"295",103,25,8,6,0,0.01,50,103,0.74,1.93,0.72,6.55,800,0.233793620297287,0.369956242386252
"296",104,30,8,6,0,0.01,50,104,0.74,1.95,0.68,6.94,800,0.243885518217236,0.344799669459462
"297",105,35,8,6,0,0.01,50,105,0.74,1.92,0.69,6.86,800,0.240975265752177,0.339258667081594
"298",106,25,10,6,0,0.01,50,106,0.73,1.97,0.7,6.77,800,0.240080559414723,0.393627318087965
"299",107,30,10,6,0,0.01,50,107,0.71,2.03,0.71,6.63,800,0.263090264708527,0.388595233205706
"300",108,35,10,6,0,0.01,50,108,0.74,1.92,0.71,6.6,800,0.236839900433597,0.349546344019473
"301",109,25,0,0,0.1,0.01,50,109,0.75,1.91,0.67,7.01,800,0.220282103845918,0.394897270947695
"302",110,30,0,0,0.1,0.01,50,110,0.75,1.89,0.67,7.02,800,0.214345710951552,0.399819022975862
"303",111,35,0,0,0.1,0.01,50,111,0.76,1.86,0.69,6.88,800,0.217525856258725,0.338940837420523
"304",112,25,3,0,0.1,0.01,50,112,0.74,1.92,0.7,6.78,800,0.231389740305481,0.36458601988852
"305",113,30,3,0,0.1,0.01,50,113,0.71,2.03,0.69,6.79,800,0.263814568694625,0.386213579680771
"306",114,35,3,0,0.1,0.01,50,114,0.76,1.87,0.7,6.67,800,0.218119991705487,0.35380184603855
"307",115,25,8,0,0.1,0.01,50,115,0.75,1.91,0.69,6.85,800,0.227746676166448,0.362993620336056
"308",116,30,8,0,0.1,0.01,50,116,0.72,2.01,0.7,6.72,800,0.259785287986534,0.378378492314368
"309",117,35,8,0,0.1,0.01,50,117,0.75,1.89,0.7,6.73,800,0.225375303600389,0.347157223615795
"310",118,25,10,0,0.1,0.01,50,118,0.73,1.95,0.7,6.74,800,0.233458385968358,0.401455483399332
"311",119,30,10,0,0.1,0.01,50,119,0.73,1.97,0.71,6.66,800,0.243541922189803,0.376120392698795
"312",120,35,10,0,0.1,0.01,50,120,0.75,1.88,0.7,6.76,800,0.225079725613889,0.334945074282587
"313",121,25,0,3,0.1,0.01,50,121,0.75,1.9,0.71,6.67,800,0.226220550626726,0.360407586209476
"314",122,30,0,3,0.1,0.01,50,122,0.73,1.98,0.68,6.96,800,0.251013317071747,0.362728376872838
"315",123,35,0,3,0.1,0.01,50,123,0.74,1.91,0.71,6.66,800,0.229554837932788,0.365597213152796
"316",124,25,3,3,0.1,0.01,50,124,0.75,1.9,0.71,6.64,800,0.225773307034628,0.356681770645082
"317",125,30,3,3,0.1,0.01,50,125,0.73,1.98,0.7,6.74,800,0.249434213738191,0.372314759064466
"318",126,35,3,3,0.1,0.01,50,126,0.72,1.99,0.69,6.8,800,0.259534821299342,0.355111637618393
"319",127,25,8,3,0.1,0.01,50,127,0.73,1.97,0.71,6.66,800,0.244012681272876,0.386916721705347
"320",128,30,8,3,0.1,0.01,50,128,0.74,1.94,0.69,6.8,800,0.24123374260116,0.35779206128791
"321",129,35,8,3,0.1,0.01,50,129,0.71,2.03,0.7,6.76,800,0.265683892049543,0.374824879691005
"322",130,25,10,3,0.1,0.01,50,130,0.74,1.93,0.69,6.85,800,0.231674487376549,0.387235703878105
"323",131,30,10,3,0.1,0.01,50,131,0.72,2.01,0.7,6.7,800,0.258843257253116,0.377699181437492
"324",132,35,10,3,0.1,0.01,50,132,0.75,1.91,0.68,6.92,800,0.230744977352576,0.352710098493844
"325",133,25,0,6,0.1,0.01,50,133,0.75,1.89,0.68,6.93,800,0.223753153974411,0.357703758403659
"326",134,30,0,6,0.1,0.01,50,134,0.72,1.99,0.69,6.83,800,0.248430955848754,0.389981203712523
"327",135,35,0,6,0.1,0.01,50,135,0.74,1.94,0.69,6.82,800,0.238068018549107,0.366085662972182
"328",136,25,3,6,0.1,0.01,50,136,0.74,1.92,0.71,6.64,800,0.230678613753457,0.374028195627034
"329",137,30,3,6,0.1,0.01,50,137,0.73,1.97,0.69,6.89,800,0.246485533792243,0.370719504076988
"330",138,35,3,6,0.1,0.01,50,138,0.73,1.96,0.69,6.88,800,0.245713341809057,0.365146976429969
"331",139,25,8,6,0.1,0.01,50,139,0.75,1.91,0.69,6.78,800,0.22724346366121,0.373261992819607
"332",140,30,8,6,0.1,0.01,50,140,0.73,1.97,0.68,6.94,800,0.251368511581944,0.352793150115758
"333",141,35,8,6,0.1,0.01,50,141,0.76,1.86,0.71,6.59,800,0.217069534288782,0.354336021468043
"334",142,25,10,6,0.1,0.01,50,142,0.73,1.95,0.7,6.68,800,0.240688165347839,0.368831684347242
"335",143,30,10,6,0.1,0.01,50,143,0.72,2.01,0.7,6.67,800,0.259352704126478,0.377809000667185
"336",144,35,10,6,0.1,0.01,50,144,0.74,1.94,0.69,6.8,800,0.238560203973353,0.357456597033888
